simple diode test 
V1 ( 1 0 )  DC  10.
R1 ( 1 2 )  100.K
D1 ( 2 0 )  ddd NA( 1.) m=2.
.model ddd d ( tnom=NA( 27.) is=10.f rs=0. n=1. tt=0. cjo=1.p pb=1. mj=0.5 egap=1.11 xti=3. kf=0. af=1. fc=0.5)
#           v(1)       v(2)       i(V1)      i(R1)      id(D1)     vd(D1)     req(D1)    cap(D1)    z(D1)      zraw(D1)   y(D1)      z(2)      
 27.        10.        0.57608   -94.239u    94.239u    47.12u     0.57608    548.91     1.5218p    100.K      273.7      0.0018218  273.7     
#           v(1)       v(2)       i(V1)      i(R1)      id(D1)     vd(D1)     req(D1)    cap(D1)    z(D1)      zraw(D1)   y(D1)      z(2)       iter(0)   
-10.       -10.       -10.        0.        -10.02p    -10.f      -10.        2.119E180  301.51f    100.K      100.K      0.         100.K      5.        
-8.        -8.        -8.         0.        -8.02p     -10.f      -8.         553.9E144  333.33f    100.K      100.K      0.         100.K      4.        
-6.        -6.        -6.         0.        -6.02p     -10.f      -6.         144.8E111  377.96f    100.K      100.K      0.         100.K      4.        
-4.        -4.        -4.         0.        -4.02p     -10.f      -4.         37.85E+78  447.21f    100.K      100.K      0.         100.K      4.        
-2.        -2.        -2.         0.        -2.02p     -10.f      -2.         9.894E+45  577.35f    100.K      100.K      0.         100.K      4.        
 0.         0.         0.         0.         0.         0.         0.         2.586E+12  1.p        100.K      100.K      386.64f    100.K      5.        
 2.         2.         0.52806   -14.719u    14.719u    7.3597u    0.52806    3.5143K    1.4539p    100.K      1.7268K    284.55u    1.7268K    10.       
 4.         4.         0.55009   -34.499u    34.499u    17.25u     0.55009    1.4994K    1.4851p    100.K      744.13     666.93u    744.13     5.        
 6.         6.         0.56186   -54.381u    54.381u    27.191u    0.56186    951.21     1.5017p    100.K      473.36     0.0010513  473.36     5.        
 8.         8.         0.56993   -74.301u    74.301u    37.15u     0.56993    696.2      1.5131p    100.K      346.89     0.0014364  346.89     5.        
 10.        10.        0.57608   -94.239u    94.239u    47.12u     0.57608    548.91     1.5218p    100.K      273.7      0.0018218  273.7      5.        
Gnucap   System status
iterations: op=9, dc=56, tran=0, fourier=0, total=65
transient timesteps: accepted=0, rejected=0, total=0
nodes: user=2, subckt=0, model=0, total=2
dctran density=100.0%, ac density=100.0%
#           v(1)       v(2)       i(V1)      i(R1)      id(D1)     vd(D1)     req(D1)    cap(D1)    z(D1)      zraw(D1)   y(D1)      z(2)       iter(0)   
 9.999      9.999      0.57608   -94.229u    94.229u    47.115u    0.57608    548.96     1.5218p    100.K      273.73     0.0018216  273.73     9.        
 10.        10.        0.57608   -94.239u    94.239u    47.12u     0.57608    548.91     1.5218p    104.01K    273.73     0.0018218  273.73     2.        
 10.001     10.001     0.57609   -94.249u    94.249u    47.125u    0.57609    548.85     1.5218p    104.01K    273.7      0.001822   273.7      2.        
#           v(1)       v(2)       i(V1)      i(R1)      id(D1)     vd(D1)     req(D1)    cap(D1)    z(D1)      zraw(D1)   y(D1)      z(2)      
 27.        10.        0.57608   -94.239u    94.239u    47.12u     0.57608    548.91     1.5218p    100.K      273.7      0.0018218  273.7     
Gnucap   System status
iterations: op=9, dc=13, tran=0, fourier=0, total=87
transient timesteps: accepted=0, rejected=0, total=0
nodes: user=2, subckt=0, model=0, total=2
dctran density=100.0%, ac density=100.0%
