simple diode test 
V1 ( 1 0 )  DC  10.
R1 ( 1 2 )  100.K
D1 ( 2 0 )  ddd 2.
.model ddd d ( tnom=NA( 27.) is=10.f rs=0. n=1. tt=0. cjo=1.p pb=1. mj=0.5 egap=1.11 xti=3. kf=0. af=1. fc=0.5)
#           v(1)       v(2)       i(V1)      i(R1)      id(D1)     vd(D1)     req(D1)    cap(D1)    z(D1)      zraw(D1)   y(D1)      z(2)      
 27.        10.        0.57608   -94.239u    94.239u    94.239u    0.57608    274.45     3.0436p    100.K      273.7      0.0036436  273.7     
#           v(1)       v(2)       i(V1)      i(R1)      id(D1)     vd(D1)     req(D1)    cap(D1)    z(D1)      zraw(D1)   y(D1)      z(2)       iter(0)   
-10.       -10.       -10.        0.        -10.02p    -20.f      -10.        1.06E180   603.02f    100.K      100.K      0.         100.K      5.        
-8.        -8.        -8.         0.        -8.02p     -20.f      -8.         277.E144   666.67f    100.K      100.K      0.         100.K      4.        
-6.        -6.        -6.         0.        -6.02p     -20.f      -6.         72.4E111   755.93f    100.K      100.K      0.         100.K      4.        
-4.        -4.        -4.         0.        -4.02p     -20.f      -4.         18.93E+78  894.43f    100.K      100.K      0.         100.K      4.        
-2.        -2.        -2.         0.        -2.02p     -20.f      -2.         4.947E+45  1.1547p    100.K      100.K      0.         100.K      4.        
 0.         0.         0.         0.         0.         0.         0.         1.293E+12  2.p        100.K      100.K      773.27f    100.K      5.        
 2.         2.         0.52806   -14.719u    14.719u    14.719u    0.52806    1.7572K    2.9078p    100.K      1.7268K    569.1u     1.7268K    10.       
 4.         4.         0.55009   -34.499u    34.499u    34.499u    0.55009    749.71     2.9701p    100.K      744.13     0.0013339  744.13     5.        
 6.         6.         0.56186   -54.381u    54.381u    54.381u    0.56186    475.61     3.0034p    100.K      473.36     0.0021026  473.36     5.        
 8.         8.         0.56993   -74.301u    74.301u    74.301u    0.56993    348.1      3.0262p    100.K      346.89     0.0028727  346.89     5.        
 10.        10.        0.57608   -94.239u    94.239u    94.239u    0.57608    274.45     3.0436p    100.K      273.7      0.0036436  273.7      5.        
Gnucap   System status
iterations: op=9, dc=56, tran=0, fourier=0, total=65
transient timesteps: accepted=0, rejected=0, total=0
nodes: user=2, subckt=0, model=0, total=2
dctran density=100.0%, ac density=100.0%
#           v(1)       v(2)       i(V1)      i(R1)      id(D1)     vd(D1)     req(D1)    cap(D1)    z(D1)      zraw(D1)   y(D1)      z(2)       iter(0)   
 9.999      9.999      0.57608   -94.229u    94.229u    94.229u    0.57608    274.48     3.0436p    100.K      273.73     0.0036432  273.73     9.        
 10.        10.        0.57608   -94.239u    94.239u    94.239u    0.57608    274.45     3.0436p    104.01K    273.73     0.0036436  273.73     2.        
 10.001     10.001     0.57609   -94.249u    94.249u    94.249u    0.57609    274.42     3.0436p    104.01K    273.7      0.003644   273.7      2.        
#           v(1)       v(2)       i(V1)      i(R1)      id(D1)     vd(D1)     req(D1)    cap(D1)    z(D1)      zraw(D1)   y(D1)      z(2)      
 27.        10.        0.57608   -94.239u    94.239u    94.239u    0.57608    274.45     3.0436p    100.K      273.7      0.0036436  273.7     
Gnucap   System status
iterations: op=9, dc=13, tran=0, fourier=0, total=87
transient timesteps: accepted=0, rejected=0, total=0
nodes: user=2, subckt=0, model=0, total=2
dctran density=100.0%, ac density=100.0%
